FIP 606 - Importación de datos
…
ver código

# Llamar objeto
cr

# A tibble: 405 × 13
    farm region zone       district      lon   lat altitude cultivar shade    
   <dbl> <chr>  <chr>      <chr>       <dbl> <dbl>    <dbl> <chr>    <chr>    
 1     1 SNNPR  Bench Maji Debub Bench  35.4  6.90     1100 Local    Sun      
 2     2 SNNPR  Bench Maji Debub Bench  35.4  6.90     1342 Mixture  Mid shade
 3     3 SNNPR  Bench Maji Debub Bench  35.4  6.90     1434 Mixture  Mid shade
 4     4 SNNPR  Bench Maji Debub Bench  35.4  6.90     1100 Local    Sun      
 5     5 SNNPR  Bench Maji Debub Bench  35.4  6.90     1400 Local    Sun      
 6     6 SNNPR  Bench Maji Debub Bench  35.4  6.90     1342 Mixture  Mid shade
 7     7 SNNPR  Bench Maji Debub Bench  35.4  6.90     1432 Mixture  Mid shade
 8     8 SNNPR  Bench Maji Debub Bench  35.4  6.90     1100 Local    Sun      
 9     9 SNNPR  Bench Maji Debub Bench  35.4  6.89     1400 Local    Sun      
10    10 SNNPR  Bench Maji Debub Bench  35.4  6.88     1342 Mixture  Mid shade
# ℹ 395 more rows
# ℹ 4 more variables: cropping_system <chr>, farm_management <chr>, inc <dbl>,
#   sev2 <dbl>
…
ver código

# Cargar librerías 
library(gsheet)

# Llamar objeto
mg <- gsheet2tbl("https://docs.google.com/spreadsheets/d/1bq2N19DcZdtax2fQW9OHSGMR0X2__Z9T/edit?gid=373270992#gid=373270992")

Visualiza la base de datos.

ver código

mg

# A tibble: 70 × 5
   Cultura   rep Assess LeafDoctor ImageJ
   <chr>   <dbl>  <dbl>      <dbl>  <dbl>
 1 Rosa       21  20.0        31.6  26.0 
 2 Rosa       22   4.77       13.5   5.16
 3 Rosa       23  72.1        77.6  69.5 
 4 Rosa       24  81.4        90.8  82.7 
 5 Rosa       25  25.8        24.5  13.1 
 6 Rosa       26  80.4        73.8  69.9 
 7 Rosa       27  81.7        86.8  88.7 
 8 Rosa       28   7.02       14.0   6.4 
 9 Rosa       29  11.2        16.0  10.8 
10 Rosa       30  79.1        77.0  78.2 
# ℹ 60 more rows
…
