FIP 606 - Área abaixo da curva de progresso da doença (AACPD)
…
1.1 Importação dos dados incidência

A tabela contém dados sobre a incidência da ferrugem do cafeeiro ao longo do tempo.

Code

# Chamar dados incidência
dato1 <- read_excel("ferrugem1.xlsx","Inc")
dato1

# A tibble: 840 × 9
     Gen   Rep   `0`  `30`  `60`  `90` `120` `150` `180`
   <dbl> <dbl> <dbl> <dbl> <dbl> <dbl> <dbl> <dbl> <dbl>
 1     1     1     0   0     0     0    0     6.67 100  
 2     1     2     0   0     0    20    3.70 11.6   76.2
 3     1     3     0   0     0    21.7  1.85  5.79  70.2
 4     1     4    10  10    64.3  20   73.9  32.5   25.9
 5     1     5     0   0     0     0   26.7  20.8   55  
 6     2     1     0  10.6  78.9  20   49.4  68.9  100  
 7     2     2     0   0    60    23.3 58.6  60.9  100  
 8     2     3     0   0    85.7  40   48.1  41.5  100  
 9     2     4     0   0    11.1  33.3 41.1  74.2  100  
10     2     5     0   0    14.3  40   19.4  21.2  100  
# ℹ 830 more rows

Code

# Formato largo
df1 <- dato1 |> 
  pivot_longer(cols = 3:9, 
               names_to = "time", 
               values_to = "incidence")
df1

# A tibble: 5,880 × 4
     Gen   Rep time  incidence
   <dbl> <dbl> <chr>     <dbl>
 1     1     1 0          0   
 2     1     1 30         0   
 3     1     1 60         0   
 4     1     1 90         0   
 5     1     1 120        0   
 6     1     1 150        6.67
 7     1     1 180      100   
 8     1     2 0          0   
 9     1     2 30         0   
10     1     2 60         0   
# ℹ 5,870 more rows

1.2 Importação dos dados severidade

A tabela contém dados sobre a severidade da ferrugem do cafeeiro ao longo do tempo.

Code

# Chamar dados severity
dato2 <- read_excel("ferrugem1.xlsx","Sev")
dato2

# A tibble: 840 × 9
     Gen   Rep   `0`  `30`  `60`   `90`  `120`  `150` `180`
   <dbl> <dbl> <dbl> <dbl> <dbl>  <dbl>  <dbl>  <dbl> <dbl>
 1     1     1   0   0     0     0      0      0.0667 3.25 
 2     1     2   0   0     0     0      0.0556 0.177  1.42 
 3     1     3   0   0     0     0.0992 0.0556 0.0764 1.25 
 4     1     4   0.2 0.2   1     0.952  2.08   0.558  0.455
 5     1     5   0   0     0     0.0167 0.575  0.417  0.7  
 6     2     1   0   0.106 0.894 0.804  0.795  0.956  4    
 7     2     2   0   0     0.6   0.660  1.05   0.979  3    
 8     2     3   0   0     0.857 0.964  0.835  0.680  3.25 
 9     2     4   0   0     0.111 0.954  0.991  2.01   3.1  
10     2     5   0   0     0.143 0.401  0.343  0.461  3.64 
# ℹ 830 more rows

Code

# Formato largo
df2 <- dato2 |> 
  pivot_longer(cols = 3:9, 
               names_to = "time", 
               values_to = "severity")
df2

# A tibble: 5,880 × 4
     Gen   Rep time  severity
   <dbl> <dbl> <chr>    <dbl>
 1     1     1 0       0     
 2     1     1 30      0     
 3     1     1 60      0     
 4     1     1 90      0     
 5     1     1 120     0     
 6     1     1 150     0.0667
 7     1     1 180     3.25  
 8     1     2 0       0     
 9     1     2 30      0     
10     1     2 60      0     
# ℹ 5,870 more rows

1.3 Importação dos dados desfolha

A tabela contém dados sobre a desfolha do cafeeiro ocasionada pela ferrugem do cafeeiro ao longo do tempo.

Code

# Chamar dados defoliation 
dato3 <- read_excel("ferrugem1.xlsx","Def")
dato3

# A tibble: 840 × 9
     Gen   Rep   `0`  `30`  `60`  `90` `120` `150` `180`
   <dbl> <dbl> <dbl> <dbl> <dbl> <dbl> <dbl> <dbl> <dbl>
 1     1     1     0     0     0   0    36.7  48.3  44.2
 2     1     2    20    20     0  20    26.7  30    25  
 3     1     3    10    10     0  21.7  21.7  28.3  21.7
 4     1     4    35    35    30  20    51.7  63.3  36.7
 5     1     5    40    40     0   0    35    45    22.5
 6     2     1     0     5     5  20    53.3  58.3  41.7
 7     2     2     0     0     0  23.3  46.7  40    40  
 8     2     3    30    30    30  40    38.3  31.7  45.8
 9     2     4    10    10    10  33.3  36.7  63.3  41.7
10     2     5    30    30    30  40    26.7  30    30  
# ℹ 830 more rows

Code

# Formato largo
df3 <- dato3 |> 
  pivot_longer(cols = 3:9, 
               names_to = "time", 
               values_to = "defolation")
df3

# A tibble: 5,880 × 4
     Gen   Rep time  defolation
   <dbl> <dbl> <chr>      <dbl>
 1     1     1 0            0  
 2     1     1 30           0  
 3     1     1 60           0  
 4     1     1 90           0  
 5     1     1 120         36.7
 6     1     1 150         48.3
 7     1     1 180         44.2
 8     1     2 0           20  
 9     1     2 30          20  
10     1     2 60           0  
# ℹ 5,870 more rows
…
Code

# AUDPC incidence
audpcI <- function(time, incidence) {
  return(audpc(incidence, time))
}

# Agrupar dados por genótipo e repetição
audpc1 <- df1 |> 
  group_by(Gen, Rep) |> 
  summarise(AUDPC = audpcI(time, incidence))
audpc1

# A tibble: 840 × 3
# Groups:   Gen [168]
     Gen   Rep AUDPC
   <dbl> <dbl> <dbl>
 1     1     1 1700 
 2     1     2 2203.
 3     1     3 1933.
 4     1     4 6559.
 5     1     5 2250 
 6     2     1 8333.
 7     2     2 7585.
 8     2     3 7959.
 9     2     4 6292.
10     2     5 4347.
# ℹ 830 more rows
Para a severidade:

Code

# AUDPC severidade 
audpcS <- function(time, severity) {
  return(audpc(severity, time))
}
# Agrupar dados por genótipo e repetição
audpc2 <- df2 |> 
  group_by(Gen, Rep) |> 
  summarise(AUDPC = audpcS(time, severity))
audpc2

# A tibble: 840 × 3
# Groups:   Gen [168]
     Gen   Rep AUDPC
   <dbl> <dbl> <dbl>
 1     1     1  50.8
 2     1     2  28.4
 3     1     3  25.7
 4     1     4 154. 
 5     1     5  40.8
 6     2     1 167. 
 7     2     2 144. 
 8     2     3 149. 
 9     2     4 168. 
10     2     5  95.1
# ℹ 830 more rows
…
Code

# AUDPC desfolha 
audpcD <- function(time, defolation) {
  return(audpc(defolation, time))
}

# Agrupar dados por genótipo e repetição
audpc3 <- df3 |> 
  group_by(Gen, Rep) |> 
  summarise(AUDPC = audpcD(time, defolation))
audpc3

# A tibble: 840 × 3
# Groups:   Gen [168]
     Gen   Rep AUDPC
   <dbl> <dbl> <dbl>
 1     1     1 3213.
 2     1     2 3575 
 3     1     3 2925 
 4     1     4 7075 
 5     1     5 4538.
 6     2     1 4875 
 7     2     2 3900 
 8     2     3 6238.
 9     2     4 5375 
10     2     5 5600 
# ℹ 830 more rows

4 Novo Dataframe

Foi criado um novo dataframe com os dados da AACPD de Incidência, Severidade e Desfolha. A função left_join do pacote dplyr permite combinar duas tabelas. Após obter os cálculos de AACPD para incidência, severidade e desfolha, as tabelas foram unidas usando left_join() com base nas colunas Gen e Rep. Essa união de tipo esquerda preserva todas as linhas de audpc1, adicionando as correspondentes de audpc2 e audpc3 onde Gen e Rep coincidam. O resultado é um novo dataframe AUDPC com as colunas combinadas de audpc1, audpc2 e audpc3 para cada combinação de genótipo (Gen) e repetição (Rep).

Code

# Unir tabelas
AUDPC <- audpc1 |> 
  left_join(audpc2, by = c("Gen", "Rep")) |> 
  left_join(audpc3, by = c("Gen", "Rep"))
AUDPC 

# A tibble: 840 × 5
# Groups:   Gen [168]
     Gen   Rep AUDPC.x AUDPC.y AUDPC
   <dbl> <dbl>   <dbl>   <dbl> <dbl>
 1     1     1   1700     50.8 3213.
 2     1     2   2203.    28.4 3575 
 3     1     3   1933.    25.7 2925 
 4     1     4   6559.   154.  7075 
 5     1     5   2250     40.8 4538.
 6     2     1   8333.   167.  4875 
 7     2     2   7585.   144.  3900 
 8     2     3   7959.   149.  6238.
 9     2     4   6292.   168.  5375 
10     2     5   4347.    95.1 5600 
# ℹ 830 more rows

Code

# Renomear colunas no data frame
AUDPC <- AUDPC |> 
  rename(genotype = Gen, 
         repetition = Rep,
         incidence = AUDPC.x,
         severity = AUDPC.y,
         defoliation = AUDPC)
AUDPC

# A tibble: 840 × 5
# Groups:   genotype [168]
   genotype repetition incidence severity defoliation
      <dbl>      <dbl>     <dbl>    <dbl>       <dbl>
 1        1          1     1700      50.8       3213.
 2        1          2     2203.     28.4       3575 
 3        1          3     1933.     25.7       2925 
 4        1          4     6559.    154.        7075 
 5        1          5     2250      40.8       4538.
 6        2          1     8333.    167.        4875 
 7        2          2     7585.    144.        3900 
 8        2          3     7959.    149.        6238.
 9        2          4     6292.    168.        5375 
10        2          5     4347.     95.1       5600 
# ℹ 830 more rows
…
